<svg width="40" height="40" viewBox="0 0 40 40" fill="none" xmlns="http://www.w3.org/2000/svg">
<line x1="11.3027" y1="9.33334" x2="11.3027" y2="30.6667" stroke="#04009A" stroke-width="2" stroke-linecap="round"/>
<line x1="19.1821" y1="9.33334" x2="19.1821" y2="30.6667" stroke="#04009A" stroke-width="2" stroke-linecap="round"/>
<line x1="27.0605" y1="9.33334" x2="27.0605" y2="30.6667" stroke="#04009A" stroke-width="2" stroke-linecap="round"/>
<ellipse cx="27.0459" cy="13.4935" rx="2.95455" ry="2.91667" fill="#04009A"/>
<ellipse cx="19.1665" cy="26.2072" rx="2.95455" ry="2.91667" fill="#04009A"/>
<ellipse cx="11.288" cy="19.0277" rx="2.95455" ry="2.91667" fill="#04009A"/>
</svg>
